/* XPM */
static char * min_xpm[] = {
"20 20 3 1",
" 	c None",
".	c #08090A",
"+	c #8B99B5",
"....................",
"....................",
"....................",
"....................",
"....................",
"....................",
"....................",
"....................",
".......+...+........",
"........+.+.........",
".........+..........",
"....................",
"....................",
"....................",
"....................",
"....................",
"....................",
"....................",
"....................",
"...................."};
