/* XPM */
static char * close_unfocused_xpm[] = {
"18 18 3 1",
" 	c None",
".	c #444444",
"+	c #FFFFFF",
"..................",
"..................",
"..................",
"..................",
"..................",
"..................",
"......+...+.......",
".......+.+........",
"........+.........",
".......+.+........",
"......+...+.......",
"..................",
"..................",
"..................",
"..................",
"..................",
"..................",
".................."};
