/* XPM */
static char * close_xpm[] = {
"18 18 4 1",
" 	c None",
".	c #41B1FF",
"+	c #444444",
"@	c #FFFFFF",
"..................",
"++++++++++++++++++",
"++++++++++++++++++",
"++++++++++++++++++",
"++++++++++++++++++",
"++++++++++++++++++",
"++++++@+++@+++++++",
"+++++++@+@++++++++",
"++++++++@+++++++++",
"+++++++@+@++++++++",
"++++++@+++@+++++++",
"++++++++++++++++++",
"++++++++++++++++++",
"++++++++++++++++++",
"++++++++++++++++++",
"++++++++++++++++++",
"++++++++++++++++++",
"++++++++++++++++++"};
