/* XPM */
static char * min_unfocused_xpm[] = {
"20 20 3 1",
" 	c None",
".	c #444444",
"+	c #FFFFFF",
"....................",
"....................",
"....................",
"....................",
"....................",
"....................",
"....................",
"....................",
".......+...+........",
"........+.+.........",
".........+..........",
"....................",
"....................",
"....................",
"....................",
"....................",
"....................",
"....................",
"....................",
"...................."};
